{
  "type": "service_account",
  "project_id": "plateid-40387",
  "private_key_id": "9987da035f9f191b9c0f6b6ca658a04646547bbc",
  "private_key": "-----BEGIN PRIVATE KEY-----\nMIIEvQIBADANBgkqhkiG9w0BAQEFAASCBKcwggSjAgEAAoIBAQC6RzAtiCZYGPLU\nFSsKZOV7FXEeqdRybEn7HV5OQC1mMmFCJzhAfq7JKKBoSY60+ah0w3KSoqHvx8NI\nRfPu8pV93tfT21NCEnMSQO54xHuasu3Fo439h0h3jrFWLVvZNzmTI7NTn2xresnJ\nKLrzgrO7UFhhpDuWmLvD6QWdkTNlKYJIZxBlRW3SsfDjy2NrSL16fwVtxsebIt1j\nS6S8INpNWDnEME5S5oGQ2Hor7Iwv1FchxsHPyYuDPXlFy/pqDcVG/gC/dYL1v5BJ\nfuQWt5KWxvqbdusGeHqGWPgGwmJJ4SMlguO+597RsAIPNryWv7ptH5wA+Kzgftj/\nKXPVoBojAgMBAAECggEAGAMVMslaKAEPTEduROi8rCEXc9xwhk9vOe+POIcNUx8r\naluj5Kxv235hLxBMVQfZrzOCkWRle4NEqQxbZXHf01nmeGjNUrcOHkxAcVDing5y\nmAd9RjEqJj8+nN07+cQkp9LyStVCJJivaj7V2o3+nSa+Pdft1nvZuGdRUf5loaR/\nc0nNXJsBmF+JIJvEWnJISHsxgbfxypg77ZWbWzYoByq8WQ313S3+5iZRnVpNLvwo\nlzoWWAT4JtbRT/tgvzdD06i1cG67vLuWXWYUQcEhUN6Q2HnK7J+k6UruUZIk9KLO\nbLTfx1rtV9TkvM+mkmXw9h8hCKOa+g5aYp2EDXcgAQKBgQD2EbxhXebY1FcoucHF\nk76i2IXVx/DPUMkMSAlny+lyb87azug4LA7poTbxYOjhTRKU4udYs2x3rG58OU24\nuPG2I8VW+uemVzrVBKZslaUpez/KV8QxfMStxYIVvl2mFlwnV7+/W9Eg4LxKWgZa\n9GHTxFJ73yRE/STwfD+aMFsSkQKBgQDBy7g9YUw2WICN+l/E7SgU+SQI9BhJqwRJ\nLC6Su1J1hbH936LJNUVJv/Uth75/8AyuQ6PZDAVQknnkma80R6eacWMN2rsRmucP\n2FjmyC5wUdWumLWH45Bb/2O+go+wXALzk3sBl5znEdqcBQ5W585It9QucTRL1nZh\nNZVI0/YTcwKBgHQ+jK+ynItyRHqIxnGACl8DyrXjbm+Bynhyz36pZe8Zwq67cBiZ\nN7JG5p3BGkLVFiIfzwqoOGWQn+EvcPgC5q0U2PTuMuDx9GkNeVFyoEOoZcpBC/4U\n4xT0aS+8bqE3jvFHEt5jkbfmcwzs2nO9XzmbVRwPniK5M+onyCQfE+cBAoGBAIaa\nyU1Y12an8iKrVPmi/8QRiEXvxS7l6gQo+/BOy+d1BTwgqSC4L3gaLGGDd33Fbglc\nUeHfx5E/LArr9BWL744GU5a75lNEFFmdG6KwSBEbxh+PUgcguJQtv0oDxWnpfuNP\n/JAOjpywefcETAFw4IcBqA7Z8kj6nR7H6Pi8wJ6hAoGASqHzuKfHAV+Hx4X2+3ac\nYGntqI3EpkmDBOQR+EEmBz7VOidVJeYt2ajC9Lxh594TyLUsoBCHY56u/rz9fq1L\noBgKn1qW0W+HDl8YgjjsSiCe95bR0bEc5t0rDnLdXZunI6yzFGYRQzFcKarY0904\nVvvNsh6YY1sBthfAGLZ7Wmo=\n-----END PRIVATE KEY-----\n",
  "client_email": "chris-service@plateid-40387.iam.gserviceaccount.com",
  "client_id": "101273983571515464948",
  "auth_uri": "https://accounts.google.com/o/oauth2/auth",
  "token_uri": "https://oauth2.googleapis.com/token",
  "auth_provider_x509_cert_url": "https://www.googleapis.com/oauth2/v1/certs",
  "client_x509_cert_url": "https://www.googleapis.com/robot/v1/metadata/x509/chris-service%40plateid-40387.iam.gserviceaccount.com"
}
